solid OpenSCAD_Model
  facet normal -0 0.19509 0.980785
    outer loop
      vertex -0.5 -11.2346 35.2766
      vertex 36 -12 35.4288
      vertex 36 -11.2346 35.2766
    endloop
  endfacet
  facet normal 0 0.19509 0.980785
    outer loop
      vertex 36 -12 35.4288
      vertex -0.5 -11.2346 35.2766
      vertex -0.5 -12 35.4288
    endloop
  endfacet
  facet normal -0 0.19509 0.980785
    outer loop
      vertex -80 -11.2346 35.2766
      vertex -49.5 -12 35.4288
      vertex -49.5 -11.2346 35.2766
    endloop
  endfacet
  facet normal 0 0.19509 0.980785
    outer loop
      vertex -49.5 -12 35.4288
      vertex -80 -11.2346 35.2766
      vertex -80 -12 35.4288
    endloop
  endfacet
  facet normal 0 0.19509 -0.980785
    outer loop
      vertex -0.5 -12 31.4288
      vertex 36 -11.2346 31.581
      vertex 36 -12 31.4288
    endloop
  endfacet
  facet normal 0 0.19509 -0.980785
    outer loop
      vertex 36 -11.2346 31.581
      vertex -0.5 -12 31.4288
      vertex -0.5 -11.2346 31.581
    endloop
  endfacet
  facet normal 0 0.19509 -0.980785
    outer loop
      vertex -80 -12 31.4288
      vertex -49.5 -11.2346 31.581
      vertex -49.5 -12 31.4288
    endloop
  endfacet
  facet normal 0 0.19509 -0.980785
    outer loop
      vertex -49.5 -11.2346 31.581
      vertex -80 -12 31.4288
      vertex -80 -11.2346 31.581
    endloop
  endfacet
  facet normal 0 0.980785 0.195091
    outer loop
      vertex 36 -10 33.4288
      vertex -0.5 -10.1522 34.1942
      vertex 36 -10.1522 34.1942
    endloop
  endfacet
  facet normal 0 0.980785 0.195091
    outer loop
      vertex -0.5 -10.1522 34.1942
      vertex 36 -10 33.4288
      vertex -0.5 -10 33.4288
    endloop
  endfacet
  facet normal 0 0.980785 0.195091
    outer loop
      vertex -49.5 -10 33.4288
      vertex -80 -10.1522 34.1942
      vertex -49.5 -10.1522 34.1942
    endloop
  endfacet
  facet normal 0 0.980785 0.195091
    outer loop
      vertex -80 -10.1522 34.1942
      vertex -49.5 -10 33.4288
      vertex -80 -10 33.4288
    endloop
  endfacet
  facet normal -0 0.555569 0.83147
    outer loop
      vertex -0.5 -10.5858 34.843
      vertex 36 -11.2346 35.2766
      vertex 36 -10.5858 34.843
    endloop
  endfacet
  facet normal 0 0.555569 0.83147
    outer loop
      vertex 36 -11.2346 35.2766
      vertex -0.5 -10.5858 34.843
      vertex -0.5 -11.2346 35.2766
    endloop
  endfacet
  facet normal -0 0.555569 0.83147
    outer loop
      vertex -80 -10.5858 34.843
      vertex -49.5 -11.2346 35.2766
      vertex -49.5 -10.5858 34.843
    endloop
  endfacet
  facet normal 0 0.555569 0.83147
    outer loop
      vertex -49.5 -11.2346 35.2766
      vertex -80 -10.5858 34.843
      vertex -80 -11.2346 35.2766
    endloop
  endfacet
  facet normal 0 -0.980785 -0.195092
    outer loop
      vertex -0.5 -13.8478 32.6634
      vertex 36 -14 33.4288
      vertex -0.5 -14 33.4288
    endloop
  endfacet
  facet normal 0 -0.980785 -0.195092
    outer loop
      vertex 36 -14 33.4288
      vertex -0.5 -13.8478 32.6634
      vertex 36 -13.8478 32.6634
    endloop
  endfacet
  facet normal 0 -0.980785 -0.195092
    outer loop
      vertex -80 -13.8478 32.6634
      vertex -49.5 -14 33.4288
      vertex -80 -14 33.4288
    endloop
  endfacet
  facet normal 0 -0.980785 -0.195092
    outer loop
      vertex -49.5 -14 33.4288
      vertex -80 -13.8478 32.6634
      vertex -49.5 -13.8478 32.6634
    endloop
  endfacet
  facet normal 1 0 0
    outer loop
      vertex 40 -10.1522 34.1942
      vertex 40 -10.1522 32.6634
      vertex 40 -10 33.4288
    endloop
  endfacet
  facet normal 1 0 0
    outer loop
      vertex 40 -10.5858 34.843
      vertex 40 -10.1522 32.6634
      vertex 40 -10.1522 34.1942
    endloop
  endfacet
  facet normal 1 0 0
    outer loop
      vertex 40 -10.5858 34.843
      vertex 40 -10.5858 32.0146
      vertex 40 -10.1522 32.6634
    endloop
  endfacet
  facet normal 1 0 0
    outer loop
      vertex 40 -11.2346 35.2766
      vertex 40 -10.5858 32.0146
      vertex 40 -10.5858 34.843
    endloop
  endfacet
  facet normal 1 0 0
    outer loop
      vertex 40 -11.2346 35.2766
      vertex 40 -11.2346 31.581
      vertex 40 -10.5858 32.0146
    endloop
  endfacet
  facet normal 1 0 0
    outer loop
      vertex 40 -12 35.4288
      vertex 40 -11.2346 31.581
      vertex 40 -11.2346 35.2766
    endloop
  endfacet
  facet normal 1 0 0
    outer loop
      vertex 40 -12 35.4288
      vertex 40 -12 31.4288
      vertex 40 -11.2346 31.581
    endloop
  endfacet
  facet normal 1 -0 0
    outer loop
      vertex 40 -12.7654 35.2766
      vertex 40 -12 31.4288
      vertex 40 -12 35.4288
    endloop
  endfacet
  facet normal 1 0 0
    outer loop
      vertex 40 -12.7654 35.2766
      vertex 40 -12.7654 31.581
      vertex 40 -12 31.4288
    endloop
  endfacet
  facet normal 1 -0 0
    outer loop
      vertex 40 -13.4142 34.843
      vertex 40 -12.7654 31.581
      vertex 40 -12.7654 35.2766
    endloop
  endfacet
  facet normal 1 0 0
    outer loop
      vertex 40 -13.4142 34.843
      vertex 40 -13.4142 32.0146
      vertex 40 -12.7654 31.581
    endloop
  endfacet
  facet normal 1 -0 0
    outer loop
      vertex 40 -13.8478 34.1942
      vertex 40 -13.4142 32.0146
      vertex 40 -13.4142 34.843
    endloop
  endfacet
  facet normal 1 0 0
    outer loop
      vertex 40 -13.8478 34.1942
      vertex 40 -13.8478 32.6634
      vertex 40 -13.4142 32.0146
    endloop
  endfacet
  facet normal 1 0 -0
    outer loop
      vertex 40 -13.8478 32.6634
      vertex 40 -13.8478 34.1942
      vertex 40 -14 33.4288
    endloop
  endfacet
  facet normal 0 0.831469 0.55557
    outer loop
      vertex 36 -10.1522 34.1942
      vertex -0.5 -10.5858 34.843
      vertex 36 -10.5858 34.843
    endloop
  endfacet
  facet normal 0 0.831469 0.55557
    outer loop
      vertex -0.5 -10.5858 34.843
      vertex 36 -10.1522 34.1942
      vertex -0.5 -10.1522 34.1942
    endloop
  endfacet
  facet normal 0 0.831469 0.55557
    outer loop
      vertex -49.5 -10.1522 34.1942
      vertex -80 -10.5858 34.843
      vertex -49.5 -10.5858 34.843
    endloop
  endfacet
  facet normal 0 0.831469 0.55557
    outer loop
      vertex -80 -10.5858 34.843
      vertex -49.5 -10.1522 34.1942
      vertex -80 -10.1522 34.1942
    endloop
  endfacet
  facet normal 0 0.831469 -0.55557
    outer loop
      vertex 36 -10.5858 32.0146
      vertex -0.5 -10.1522 32.6634
      vertex 36 -10.1522 32.6634
    endloop
  endfacet
  facet normal 0 0.831469 -0.55557
    outer loop
      vertex -0.5 -10.1522 32.6634
      vertex 36 -10.5858 32.0146
      vertex -0.5 -10.5858 32.0146
    endloop
  endfacet
  facet normal 0 0.831469 -0.55557
    outer loop
      vertex -49.5 -10.5858 32.0146
      vertex -80 -10.1522 32.6634
      vertex -49.5 -10.1522 32.6634
    endloop
  endfacet
  facet normal 0 0.831469 -0.55557
    outer loop
      vertex -80 -10.1522 32.6634
      vertex -49.5 -10.5858 32.0146
      vertex -80 -10.5858 32.0146
    endloop
  endfacet
  facet normal 0 0.555571 -0.831469
    outer loop
      vertex -0.5 -11.2346 31.581
      vertex 36 -10.5858 32.0146
      vertex 36 -11.2346 31.581
    endloop
  endfacet
  facet normal 0 0.555571 -0.831469
    outer loop
      vertex 36 -10.5858 32.0146
      vertex -0.5 -11.2346 31.581
      vertex -0.5 -10.5858 32.0146
    endloop
  endfacet
  facet normal 0 0.555571 -0.831469
    outer loop
      vertex -80 -11.2346 31.581
      vertex -49.5 -10.5858 32.0146
      vertex -49.5 -11.2346 31.581
    endloop
  endfacet
  facet normal 0 0.555571 -0.831469
    outer loop
      vertex -49.5 -10.5858 32.0146
      vertex -80 -11.2346 31.581
      vertex -80 -10.5858 32.0146
    endloop
  endfacet
  facet normal -1 0 0
    outer loop
      vertex -80 -10.1522 32.6634
      vertex -80 -10.1522 34.1942
      vertex -80 -10 33.4288
    endloop
  endfacet
  facet normal -1 0 0
    outer loop
      vertex -80 -10.5858 32.0146
      vertex -80 -10.1522 34.1942
      vertex -80 -10.1522 32.6634
    endloop
  endfacet
  facet normal -1 0 0
    outer loop
      vertex -80 -10.5858 32.0146
      vertex -80 -10.5858 34.843
      vertex -80 -10.1522 34.1942
    endloop
  endfacet
  facet normal -1 0 0
    outer loop
      vertex -80 -11.2346 31.581
      vertex -80 -10.5858 34.843
      vertex -80 -10.5858 32.0146
    endloop
  endfacet
  facet normal -1 0 0
    outer loop
      vertex -80 -11.2346 31.581
      vertex -80 -11.2346 35.2766
      vertex -80 -10.5858 34.843
    endloop
  endfacet
  facet normal -1 0 0
    outer loop
      vertex -80 -12 31.4288
      vertex -80 -11.2346 35.2766
      vertex -80 -11.2346 31.581
    endloop
  endfacet
  facet normal -1 0 0
    outer loop
      vertex -80 -12 31.4288
      vertex -80 -12 35.4288
      vertex -80 -11.2346 35.2766
    endloop
  endfacet
  facet normal -1 0 0
    outer loop
      vertex -80 -12.7654 31.581
      vertex -80 -12 35.4288
      vertex -80 -12 31.4288
    endloop
  endfacet
  facet normal -1 0 0
    outer loop
      vertex -80 -12.7654 31.581
      vertex -80 -12.7654 35.2766
      vertex -80 -12 35.4288
    endloop
  endfacet
  facet normal -1 0 0
    outer loop
      vertex -80 -13.4142 32.0146
      vertex -80 -12.7654 35.2766
      vertex -80 -12.7654 31.581
    endloop
  endfacet
  facet normal -1 0 0
    outer loop
      vertex -80 -13.4142 32.0146
      vertex -80 -13.4142 34.843
      vertex -80 -12.7654 35.2766
    endloop
  endfacet
  facet normal -1 0 0
    outer loop
      vertex -80 -13.8478 32.6634
      vertex -80 -13.4142 34.843
      vertex -80 -13.4142 32.0146
    endloop
  endfacet
  facet normal -1 0 0
    outer loop
      vertex -80 -13.8478 32.6634
      vertex -80 -13.8478 34.1942
      vertex -80 -13.4142 34.843
    endloop
  endfacet
  facet normal -1 0 -0
    outer loop
      vertex -80 -13.8478 34.1942
      vertex -80 -13.8478 32.6634
      vertex -80 -14 33.4288
    endloop
  endfacet
  facet normal 0 0.980785 -0.195092
    outer loop
      vertex 36 -10.1522 32.6634
      vertex -0.5 -10 33.4288
      vertex 36 -10 33.4288
    endloop
  endfacet
  facet normal 0 0.980785 -0.195092
    outer loop
      vertex -0.5 -10 33.4288
      vertex 36 -10.1522 32.6634
      vertex -0.5 -10.1522 32.6634
    endloop
  endfacet
  facet normal 0 0.980785 -0.195092
    outer loop
      vertex -49.5 -10.1522 32.6634
      vertex -80 -10 33.4288
      vertex -49.5 -10 33.4288
    endloop
  endfacet
  facet normal 0 0.980785 -0.195092
    outer loop
      vertex -80 -10 33.4288
      vertex -49.5 -10.1522 32.6634
      vertex -80 -10.1522 32.6634
    endloop
  endfacet
  facet normal 0 -0.831469 -0.55557
    outer loop
      vertex -0.5 -13.4142 32.0146
      vertex 36 -13.8478 32.6634
      vertex -0.5 -13.8478 32.6634
    endloop
  endfacet
  facet normal 0 -0.831469 -0.55557
    outer loop
      vertex 36 -13.8478 32.6634
      vertex -0.5 -13.4142 32.0146
      vertex 36 -13.4142 32.0146
    endloop
  endfacet
  facet normal 0 -0.831469 -0.55557
    outer loop
      vertex -80 -13.4142 32.0146
      vertex -49.5 -13.8478 32.6634
      vertex -80 -13.8478 32.6634
    endloop
  endfacet
  facet normal 0 -0.831469 -0.55557
    outer loop
      vertex -49.5 -13.8478 32.6634
      vertex -80 -13.4142 32.0146
      vertex -49.5 -13.4142 32.0146
    endloop
  endfacet
  facet normal 0 -0.19509 -0.980785
    outer loop
      vertex -0.5 -12.7654 31.581
      vertex 36 -12 31.4288
      vertex 36 -12.7654 31.581
    endloop
  endfacet
  facet normal -0 -0.19509 -0.980785
    outer loop
      vertex 36 -12 31.4288
      vertex -0.5 -12.7654 31.581
      vertex -0.5 -12 31.4288
    endloop
  endfacet
  facet normal 0 -0.19509 -0.980785
    outer loop
      vertex -80 -12.7654 31.581
      vertex -49.5 -12 31.4288
      vertex -49.5 -12.7654 31.581
    endloop
  endfacet
  facet normal -0 -0.19509 -0.980785
    outer loop
      vertex -49.5 -12 31.4288
      vertex -80 -12.7654 31.581
      vertex -80 -12 31.4288
    endloop
  endfacet
  facet normal 0 -0.19509 0.980785
    outer loop
      vertex -0.5 -12 35.4288
      vertex 36 -12.7654 35.2766
      vertex 36 -12 35.4288
    endloop
  endfacet
  facet normal 0 -0.19509 0.980785
    outer loop
      vertex 36 -12.7654 35.2766
      vertex -0.5 -12 35.4288
      vertex -0.5 -12.7654 35.2766
    endloop
  endfacet
  facet normal 0 -0.19509 0.980785
    outer loop
      vertex -80 -12 35.4288
      vertex -49.5 -12.7654 35.2766
      vertex -49.5 -12 35.4288
    endloop
  endfacet
  facet normal 0 -0.19509 0.980785
    outer loop
      vertex -49.5 -12.7654 35.2766
      vertex -80 -12 35.4288
      vertex -80 -12.7654 35.2766
    endloop
  endfacet
  facet normal 0 -0.831469 0.55557
    outer loop
      vertex -0.5 -13.8478 34.1942
      vertex 36 -13.4142 34.843
      vertex -0.5 -13.4142 34.843
    endloop
  endfacet
  facet normal 0 -0.831469 0.55557
    outer loop
      vertex 36 -13.4142 34.843
      vertex -0.5 -13.8478 34.1942
      vertex 36 -13.8478 34.1942
    endloop
  endfacet
  facet normal 0 -0.831469 0.55557
    outer loop
      vertex -80 -13.8478 34.1942
      vertex -49.5 -13.4142 34.843
      vertex -80 -13.4142 34.843
    endloop
  endfacet
  facet normal 0 -0.831469 0.55557
    outer loop
      vertex -49.5 -13.4142 34.843
      vertex -80 -13.8478 34.1942
      vertex -49.5 -13.8478 34.1942
    endloop
  endfacet
  facet normal 0 -0.980785 0.195091
    outer loop
      vertex -0.5 -14 33.4288
      vertex 36 -13.8478 34.1942
      vertex -0.5 -13.8478 34.1942
    endloop
  endfacet
  facet normal 0 -0.980785 0.195091
    outer loop
      vertex 36 -13.8478 34.1942
      vertex -0.5 -14 33.4288
      vertex 36 -14 33.4288
    endloop
  endfacet
  facet normal 0 -0.980785 0.195091
    outer loop
      vertex -80 -14 33.4288
      vertex -49.5 -13.8478 34.1942
      vertex -80 -13.8478 34.1942
    endloop
  endfacet
  facet normal 0 -0.980785 0.195091
    outer loop
      vertex -49.5 -13.8478 34.1942
      vertex -80 -14 33.4288
      vertex -49.5 -14 33.4288
    endloop
  endfacet
  facet normal 0 -0.555569 0.83147
    outer loop
      vertex -0.5 -12.7654 35.2766
      vertex 36 -13.4142 34.843
      vertex 36 -12.7654 35.2766
    endloop
  endfacet
  facet normal 0 -0.555569 0.83147
    outer loop
      vertex 36 -13.4142 34.843
      vertex -0.5 -12.7654 35.2766
      vertex -0.5 -13.4142 34.843
    endloop
  endfacet
  facet normal 0 -0.555569 0.83147
    outer loop
      vertex -80 -12.7654 35.2766
      vertex -49.5 -13.4142 34.843
      vertex -49.5 -12.7654 35.2766
    endloop
  endfacet
  facet normal 0 -0.555569 0.83147
    outer loop
      vertex -49.5 -13.4142 34.843
      vertex -80 -12.7654 35.2766
      vertex -80 -13.4142 34.843
    endloop
  endfacet
  facet normal 0 -0.555571 -0.831469
    outer loop
      vertex -0.5 -13.4142 32.0146
      vertex 36 -12.7654 31.581
      vertex 36 -13.4142 32.0146
    endloop
  endfacet
  facet normal -0 -0.555571 -0.831469
    outer loop
      vertex 36 -12.7654 31.581
      vertex -0.5 -13.4142 32.0146
      vertex -0.5 -12.7654 31.581
    endloop
  endfacet
  facet normal 0 -0.555571 -0.831469
    outer loop
      vertex -80 -13.4142 32.0146
      vertex -49.5 -12.7654 31.581
      vertex -49.5 -13.4142 32.0146
    endloop
  endfacet
  facet normal -0 -0.555571 -0.831469
    outer loop
      vertex -49.5 -12.7654 31.581
      vertex -80 -13.4142 32.0146
      vertex -80 -12.7654 31.581
    endloop
  endfacet
  facet normal -0.700215 -0.139281 -0.700215
    outer loop
      vertex -42.5 -12.7654 24.581
      vertex -49.5 -12 31.4288
      vertex -42.5 -12 24.4288
    endloop
  endfacet
  facet normal -0.700215 -0.139281 -0.700215
    outer loop
      vertex -49.5 -12 31.4288
      vertex -42.5 -12.7654 24.581
      vertex -49.5 -12.7654 31.581
    endloop
  endfacet
  facet normal 0 0.980785 -0.195091
    outer loop
      vertex -7.5 -10.1522 25.6634
      vertex -42.5 -10 26.4288
      vertex -7.5 -10 26.4288
    endloop
  endfacet
  facet normal 0 0.980785 -0.195091
    outer loop
      vertex -42.5 -10 26.4288
      vertex -7.5 -10.1522 25.6634
      vertex -42.5 -10.1522 25.6634
    endloop
  endfacet
  facet normal 0 -0.19509 -0.980785
    outer loop
      vertex -42.5 -12.7654 24.581
      vertex -7.5 -12 24.4288
      vertex -7.5 -12.7654 24.581
    endloop
  endfacet
  facet normal -0 -0.19509 -0.980785
    outer loop
      vertex -7.5 -12 24.4288
      vertex -42.5 -12.7654 24.581
      vertex -42.5 -12 24.4288
    endloop
  endfacet
  facet normal 0 0.831469 -0.55557
    outer loop
      vertex -7.5 -10.5858 25.0146
      vertex -42.5 -10.1522 25.6634
      vertex -7.5 -10.1522 25.6634
    endloop
  endfacet
  facet normal 0 0.831469 -0.55557
    outer loop
      vertex -42.5 -10.1522 25.6634
      vertex -7.5 -10.5858 25.0146
      vertex -42.5 -10.5858 25.0146
    endloop
  endfacet
  facet normal 0.700215 0.139281 -0.700215
    outer loop
      vertex -0.5 -12 31.4288
      vertex -7.5 -11.2346 24.581
      vertex -0.5 -11.2346 31.581
    endloop
  endfacet
  facet normal 0.700215 0.139281 -0.700215
    outer loop
      vertex -7.5 -11.2346 24.581
      vertex -0.5 -12 31.4288
      vertex -7.5 -12 24.4288
    endloop
  endfacet
  facet normal -0 0.555569 0.83147
    outer loop
      vertex -42.5 -10.5858 41.843
      vertex -7.5 -11.2346 42.2766
      vertex -7.5 -10.5858 41.843
    endloop
  endfacet
  facet normal 0 0.555569 0.83147
    outer loop
      vertex -7.5 -11.2346 42.2766
      vertex -42.5 -10.5858 41.843
      vertex -42.5 -11.2346 42.2766
    endloop
  endfacet
  facet normal -0.639338 0.427193 -0.639338
    outer loop
      vertex -49.5 -11.2346 31.581
      vertex -42.5 -10.5858 25.0146
      vertex -42.5 -11.2346 24.581
    endloop
  endfacet
  facet normal -0.639338 0.427193 -0.639338
    outer loop
      vertex -42.5 -10.5858 25.0146
      vertex -49.5 -11.2346 31.581
      vertex -49.5 -10.5858 32.0146
    endloop
  endfacet
  facet normal 0 -0.831469 -0.55557
    outer loop
      vertex -42.5 -13.4142 25.0146
      vertex -7.5 -13.8478 25.6634
      vertex -42.5 -13.8478 25.6634
    endloop
  endfacet
  facet normal 0 -0.831469 -0.55557
    outer loop
      vertex -7.5 -13.8478 25.6634
      vertex -42.5 -13.4142 25.0146
      vertex -7.5 -13.4142 25.0146
    endloop
  endfacet
  facet normal 0.191482 -0.962637 -0.191482
    outer loop
      vertex -7.5 -14 26.4288
      vertex -0.5 -13.8478 32.6634
      vertex -0.5 -14 33.4288
    endloop
  endfacet
  facet normal 0.191481 -0.962637 -0.191481
    outer loop
      vertex -0.5 -13.8478 32.6634
      vertex -7.5 -14 26.4288
      vertex -7.5 -13.8478 25.6634
    endloop
  endfacet
  facet normal 0 0.19509 -0.980785
    outer loop
      vertex -42.5 -12 24.4288
      vertex -7.5 -11.2346 24.581
      vertex -7.5 -12 24.4288
    endloop
  endfacet
  facet normal 0 0.19509 -0.980785
    outer loop
      vertex -7.5 -11.2346 24.581
      vertex -42.5 -12 24.4288
      vertex -42.5 -11.2346 24.581
    endloop
  endfacet
  facet normal 0 1 0
    outer loop
      vertex -7.5 -10 40.4288
      vertex -7.5 -10 37.9288
      vertex -42.5 -10 40.4288
    endloop
  endfacet
  facet normal 0 1 0
    outer loop
      vertex -0.5 -10 33.4288
      vertex -7.5 -10 37.9288
      vertex -7.5 -10 40.4288
    endloop
  endfacet
  facet normal 0 1 0
    outer loop
      vertex -0.5 -10 33.4288
      vertex -3 -10 33.4288
      vertex -7.5 -10 37.9288
    endloop
  endfacet
  facet normal 0 1 0
    outer loop
      vertex -0.5 -10 33.4288
      vertex -7.5 -10 28.9288
      vertex -3 -10 33.4288
    endloop
  endfacet
  facet normal 0 1 0
    outer loop
      vertex -7.5 -10 28.9288
      vertex -7.5 -10 26.4288
      vertex -42.5 -10 28.9288
    endloop
  endfacet
  facet normal 0 1 0
    outer loop
      vertex -7.5 -10 26.4288
      vertex -7.5 -10 28.9288
      vertex -0.5 -10 33.4288
    endloop
  endfacet
  facet normal 0 1 0
    outer loop
      vertex -42.5 -10 37.9288
      vertex -42.5 -10 40.4288
      vertex -7.5 -10 37.9288
    endloop
  endfacet
  facet normal 0 1 0
    outer loop
      vertex -47 -10 33.4288
      vertex -42.5 -10 40.4288
      vertex -42.5 -10 37.9288
    endloop
  endfacet
  facet normal 0 1 -0
    outer loop
      vertex -47 -10 33.4288
      vertex -49.5 -10 33.4288
      vertex -42.5 -10 40.4288
    endloop
  endfacet
  facet normal 0 1 0
    outer loop
      vertex -42.5 -10 28.9288
      vertex -49.5 -10 33.4288
      vertex -47 -10 33.4288
    endloop
  endfacet
  facet normal 0 1 0
    outer loop
      vertex -42.5 -10 28.9288
      vertex -42.5 -10 26.4288
      vertex -49.5 -10 33.4288
    endloop
  endfacet
  facet normal 0 1 0
    outer loop
      vertex -42.5 -10 26.4288
      vertex -42.5 -10 28.9288
      vertex -7.5 -10 26.4288
    endloop
  endfacet
  facet normal 0.191481 -0.962637 0.191481
    outer loop
      vertex -7.5 -14 40.4288
      vertex -0.5 -13.8478 34.1942
      vertex -7.5 -13.8478 41.1942
    endloop
  endfacet
  facet normal 0.191481 -0.962637 0.191481
    outer loop
      vertex -0.5 -13.8478 34.1942
      vertex -7.5 -14 40.4288
      vertex -0.5 -14 33.4288
    endloop
  endfacet
  facet normal -0.191481 -0.962637 0.191481
    outer loop
      vertex -49.5 -13.8478 34.1942
      vertex -42.5 -14 40.4288
      vertex -42.5 -13.8478 41.1942
    endloop
  endfacet
  facet normal -0.191481 -0.962637 0.191481
    outer loop
      vertex -42.5 -14 40.4288
      vertex -49.5 -13.8478 34.1942
      vertex -49.5 -14 33.4288
    endloop
  endfacet
  facet normal 0.639339 -0.427191 0.639339
    outer loop
      vertex -7.5 -13.4142 41.843
      vertex -0.5 -12.7654 35.2766
      vertex -7.5 -12.7654 42.2766
    endloop
  endfacet
  facet normal 0.639339 -0.427191 0.639339
    outer loop
      vertex -0.5 -12.7654 35.2766
      vertex -7.5 -13.4142 41.843
      vertex -0.5 -13.4142 34.843
    endloop
  endfacet
  facet normal 0 0.555571 -0.831469
    outer loop
      vertex -42.5 -11.2346 24.581
      vertex -7.5 -10.5858 25.0146
      vertex -7.5 -11.2346 24.581
    endloop
  endfacet
  facet normal 0 0.555571 -0.831469
    outer loop
      vertex -7.5 -10.5858 25.0146
      vertex -42.5 -11.2346 24.581
      vertex -42.5 -10.5858 25.0146
    endloop
  endfacet
  facet normal 0 -0.980785 -0.195091
    outer loop
      vertex -42.5 -13.8478 25.6634
      vertex -7.5 -14 26.4288
      vertex -42.5 -14 26.4288
    endloop
  endfacet
  facet normal 0 -0.980785 -0.195091
    outer loop
      vertex -7.5 -14 26.4288
      vertex -42.5 -13.8478 25.6634
      vertex -7.5 -13.8478 25.6634
    endloop
  endfacet
  facet normal -0.700215 0.139281 -0.700215
    outer loop
      vertex -49.5 -12 31.4288
      vertex -42.5 -11.2346 24.581
      vertex -42.5 -12 24.4288
    endloop
  endfacet
  facet normal -0.700215 0.139281 -0.700215
    outer loop
      vertex -42.5 -11.2346 24.581
      vertex -49.5 -12 31.4288
      vertex -49.5 -11.2346 31.581
    endloop
  endfacet
  facet normal 0 -1 0
    outer loop
      vertex -42.5 -14 40.4288
      vertex -42.5 -14 37.9288
      vertex -7.5 -14 40.4288
    endloop
  endfacet
  facet normal 0 -1 0
    outer loop
      vertex -49.5 -14 33.4288
      vertex -42.5 -14 37.9288
      vertex -42.5 -14 40.4288
    endloop
  endfacet
  facet normal 0 -1 0
    outer loop
      vertex -49.5 -14 33.4288
      vertex -47 -14 33.4288
      vertex -42.5 -14 37.9288
    endloop
  endfacet
  facet normal 0 -1 0
    outer loop
      vertex -49.5 -14 33.4288
      vertex -42.5 -14 28.9288
      vertex -47 -14 33.4288
    endloop
  endfacet
  facet normal 0 -1 0
    outer loop
      vertex -42.5 -14 28.9288
      vertex -42.5 -14 26.4288
      vertex -7.5 -14 28.9288
    endloop
  endfacet
  facet normal 0 -1 0
    outer loop
      vertex -42.5 -14 26.4288
      vertex -42.5 -14 28.9288
      vertex -49.5 -14 33.4288
    endloop
  endfacet
  facet normal 0 -1 0
    outer loop
      vertex -7.5 -14 37.9288
      vertex -7.5 -14 40.4288
      vertex -42.5 -14 37.9288
    endloop
  endfacet
  facet normal 0 -1 0
    outer loop
      vertex -3 -14 33.4288
      vertex -7.5 -14 40.4288
      vertex -7.5 -14 37.9288
    endloop
  endfacet
  facet normal 0 -1 0
    outer loop
      vertex -3 -14 33.4288
      vertex -0.5 -14 33.4288
      vertex -7.5 -14 40.4288
    endloop
  endfacet
  facet normal 0 -1 0
    outer loop
      vertex -7.5 -14 28.9288
      vertex -0.5 -14 33.4288
      vertex -3 -14 33.4288
    endloop
  endfacet
  facet normal 0 -1 0
    outer loop
      vertex -7.5 -14 28.9288
      vertex -7.5 -14 26.4288
      vertex -0.5 -14 33.4288
    endloop
  endfacet
  facet normal 0 -1 0
    outer loop
      vertex -7.5 -14 26.4288
      vertex -7.5 -14 28.9288
      vertex -42.5 -14 26.4288
    endloop
  endfacet
  facet normal 0.639338 0.427193 -0.639338
    outer loop
      vertex -0.5 -11.2346 31.581
      vertex -7.5 -10.5858 25.0146
      vertex -0.5 -10.5858 32.0146
    endloop
  endfacet
  facet normal 0.639338 0.427193 -0.639338
    outer loop
      vertex -7.5 -10.5858 25.0146
      vertex -0.5 -11.2346 31.581
      vertex -7.5 -11.2346 24.581
    endloop
  endfacet
  facet normal -0.485653 0.72683 -0.485653
    outer loop
      vertex -42.5 -10.1522 25.6634
      vertex -49.5 -10.5858 32.0146
      vertex -49.5 -10.1522 32.6634
    endloop
  endfacet
  facet normal -0.485653 0.72683 -0.485653
    outer loop
      vertex -49.5 -10.5858 32.0146
      vertex -42.5 -10.1522 25.6634
      vertex -42.5 -10.5858 25.0146
    endloop
  endfacet
  facet normal 0.485653 0.72683 0.485653
    outer loop
      vertex -0.5 -10.5858 34.843
      vertex -7.5 -10.1522 41.1942
      vertex -7.5 -10.5858 41.843
    endloop
  endfacet
  facet normal 0.485653 0.72683 0.485653
    outer loop
      vertex -7.5 -10.1522 41.1942
      vertex -0.5 -10.5858 34.843
      vertex -0.5 -10.1522 34.1942
    endloop
  endfacet
  facet normal 0.639339 0.427191 0.639339
    outer loop
      vertex -0.5 -11.2346 35.2766
      vertex -7.5 -10.5858 41.843
      vertex -7.5 -11.2346 42.2766
    endloop
  endfacet
  facet normal 0.639339 0.427191 0.639339
    outer loop
      vertex -7.5 -10.5858 41.843
      vertex -0.5 -11.2346 35.2766
      vertex -0.5 -10.5858 34.843
    endloop
  endfacet
  facet normal 0.700215 0.139281 0.700215
    outer loop
      vertex -0.5 -12 35.4288
      vertex -7.5 -11.2346 42.2766
      vertex -7.5 -12 42.4288
    endloop
  endfacet
  facet normal 0.700215 0.139281 0.700215
    outer loop
      vertex -7.5 -11.2346 42.2766
      vertex -0.5 -12 35.4288
      vertex -0.5 -11.2346 35.2766
    endloop
  endfacet
  facet normal 0 -0.19509 0.980785
    outer loop
      vertex -42.5 -12 42.4288
      vertex -7.5 -12.7654 42.2766
      vertex -7.5 -12 42.4288
    endloop
  endfacet
  facet normal 0 -0.19509 0.980785
    outer loop
      vertex -7.5 -12.7654 42.2766
      vertex -42.5 -12 42.4288
      vertex -42.5 -12.7654 42.2766
    endloop
  endfacet
  facet normal 0 -0.555569 0.83147
    outer loop
      vertex -42.5 -12.7654 42.2766
      vertex -7.5 -13.4142 41.843
      vertex -7.5 -12.7654 42.2766
    endloop
  endfacet
  facet normal 0 -0.555569 0.83147
    outer loop
      vertex -7.5 -13.4142 41.843
      vertex -42.5 -12.7654 42.2766
      vertex -42.5 -13.4142 41.843
    endloop
  endfacet
  facet normal 0.485653 -0.72683 0.485653
    outer loop
      vertex -7.5 -13.8478 41.1942
      vertex -0.5 -13.4142 34.843
      vertex -7.5 -13.4142 41.843
    endloop
  endfacet
  facet normal 0.485653 -0.72683 0.485653
    outer loop
      vertex -0.5 -13.4142 34.843
      vertex -7.5 -13.8478 41.1942
      vertex -0.5 -13.8478 34.1942
    endloop
  endfacet
  facet normal -0.700215 -0.139281 0.700215
    outer loop
      vertex -42.5 -12.7654 42.2766
      vertex -49.5 -12 35.4288
      vertex -49.5 -12.7654 35.2766
    endloop
  endfacet
  facet normal -0.700215 -0.139281 0.700215
    outer loop
      vertex -49.5 -12 35.4288
      vertex -42.5 -12.7654 42.2766
      vertex -42.5 -12 42.4288
    endloop
  endfacet
  facet normal -0.639339 -0.427191 0.639339
    outer loop
      vertex -42.5 -13.4142 41.843
      vertex -49.5 -12.7654 35.2766
      vertex -49.5 -13.4142 34.843
    endloop
  endfacet
  facet normal -0.639339 -0.427191 0.639339
    outer loop
      vertex -49.5 -12.7654 35.2766
      vertex -42.5 -13.4142 41.843
      vertex -42.5 -12.7654 42.2766
    endloop
  endfacet
  facet normal -0.639339 0.427191 0.639339
    outer loop
      vertex -49.5 -11.2346 35.2766
      vertex -42.5 -10.5858 41.843
      vertex -49.5 -10.5858 34.843
    endloop
  endfacet
  facet normal -0.639339 0.427191 0.639339
    outer loop
      vertex -42.5 -10.5858 41.843
      vertex -49.5 -11.2346 35.2766
      vertex -42.5 -11.2346 42.2766
    endloop
  endfacet
  facet normal -0.191482 0.962637 -0.191482
    outer loop
      vertex -42.5 -10 26.4288
      vertex -49.5 -10.1522 32.6634
      vertex -49.5 -10 33.4288
    endloop
  endfacet
  facet normal -0.191481 0.962637 -0.191481
    outer loop
      vertex -49.5 -10.1522 32.6634
      vertex -42.5 -10 26.4288
      vertex -42.5 -10.1522 25.6634
    endloop
  endfacet
  facet normal 0 -0.555571 -0.831469
    outer loop
      vertex -42.5 -13.4142 25.0146
      vertex -7.5 -12.7654 24.581
      vertex -7.5 -13.4142 25.0146
    endloop
  endfacet
  facet normal -0 -0.555571 -0.831469
    outer loop
      vertex -7.5 -12.7654 24.581
      vertex -42.5 -13.4142 25.0146
      vertex -42.5 -12.7654 24.581
    endloop
  endfacet
  facet normal -0.639338 -0.427193 -0.639338
    outer loop
      vertex -42.5 -13.4142 25.0146
      vertex -49.5 -12.7654 31.581
      vertex -42.5 -12.7654 24.581
    endloop
  endfacet
  facet normal -0.639338 -0.427193 -0.639338
    outer loop
      vertex -49.5 -12.7654 31.581
      vertex -42.5 -13.4142 25.0146
      vertex -49.5 -13.4142 32.0146
    endloop
  endfacet
  facet normal 0.191481 0.962637 0.191481
    outer loop
      vertex -0.5 -10.1522 34.1942
      vertex -7.5 -10 40.4288
      vertex -7.5 -10.1522 41.1942
    endloop
  endfacet
  facet normal 0.191481 0.962637 0.191481
    outer loop
      vertex -7.5 -10 40.4288
      vertex -0.5 -10.1522 34.1942
      vertex -0.5 -10 33.4288
    endloop
  endfacet
  facet normal -0 0.19509 0.980785
    outer loop
      vertex -42.5 -11.2346 42.2766
      vertex -7.5 -12 42.4288
      vertex -7.5 -11.2346 42.2766
    endloop
  endfacet
  facet normal 0 0.19509 0.980785
    outer loop
      vertex -7.5 -12 42.4288
      vertex -42.5 -11.2346 42.2766
      vertex -42.5 -12 42.4288
    endloop
  endfacet
  facet normal 0.700215 -0.139281 0.700215
    outer loop
      vertex -7.5 -12.7654 42.2766
      vertex -0.5 -12 35.4288
      vertex -7.5 -12 42.4288
    endloop
  endfacet
  facet normal 0.700215 -0.139281 0.700215
    outer loop
      vertex -0.5 -12 35.4288
      vertex -7.5 -12.7654 42.2766
      vertex -0.5 -12.7654 35.2766
    endloop
  endfacet
  facet normal 0 -0.831469 0.55557
    outer loop
      vertex -42.5 -13.8478 41.1942
      vertex -7.5 -13.4142 41.843
      vertex -42.5 -13.4142 41.843
    endloop
  endfacet
  facet normal 0 -0.831469 0.55557
    outer loop
      vertex -7.5 -13.4142 41.843
      vertex -42.5 -13.8478 41.1942
      vertex -7.5 -13.8478 41.1942
    endloop
  endfacet
  facet normal 0 -0.980785 0.195091
    outer loop
      vertex -42.5 -14 40.4288
      vertex -7.5 -13.8478 41.1942
      vertex -42.5 -13.8478 41.1942
    endloop
  endfacet
  facet normal 0 -0.980785 0.195091
    outer loop
      vertex -7.5 -13.8478 41.1942
      vertex -42.5 -14 40.4288
      vertex -7.5 -14 40.4288
    endloop
  endfacet
  facet normal -0.700215 0.139281 0.700215
    outer loop
      vertex -49.5 -12 35.4288
      vertex -42.5 -11.2346 42.2766
      vertex -49.5 -11.2346 35.2766
    endloop
  endfacet
  facet normal -0.700215 0.139281 0.700215
    outer loop
      vertex -42.5 -11.2346 42.2766
      vertex -49.5 -12 35.4288
      vertex -42.5 -12 42.4288
    endloop
  endfacet
  facet normal -0.485653 -0.72683 0.485653
    outer loop
      vertex -49.5 -13.4142 34.843
      vertex -42.5 -13.8478 41.1942
      vertex -42.5 -13.4142 41.843
    endloop
  endfacet
  facet normal -0.485653 -0.72683 0.485653
    outer loop
      vertex -42.5 -13.8478 41.1942
      vertex -49.5 -13.4142 34.843
      vertex -49.5 -13.8478 34.1942
    endloop
  endfacet
  facet normal -0.191481 0.962637 0.191481
    outer loop
      vertex -42.5 -10 40.4288
      vertex -49.5 -10.1522 34.1942
      vertex -42.5 -10.1522 41.1942
    endloop
  endfacet
  facet normal -0.191481 0.962637 0.191481
    outer loop
      vertex -49.5 -10.1522 34.1942
      vertex -42.5 -10 40.4288
      vertex -49.5 -10 33.4288
    endloop
  endfacet
  facet normal -0.485653 0.72683 0.485653
    outer loop
      vertex -42.5 -10.1522 41.1942
      vertex -49.5 -10.5858 34.843
      vertex -42.5 -10.5858 41.843
    endloop
  endfacet
  facet normal -0.485653 0.72683 0.485653
    outer loop
      vertex -49.5 -10.5858 34.843
      vertex -42.5 -10.1522 41.1942
      vertex -49.5 -10.1522 34.1942
    endloop
  endfacet
  facet normal 0.485653 -0.72683 -0.485653
    outer loop
      vertex -7.5 -13.8478 25.6634
      vertex -0.5 -13.4142 32.0146
      vertex -0.5 -13.8478 32.6634
    endloop
  endfacet
  facet normal 0.485653 -0.72683 -0.485653
    outer loop
      vertex -0.5 -13.4142 32.0146
      vertex -7.5 -13.8478 25.6634
      vertex -7.5 -13.4142 25.0146
    endloop
  endfacet
  facet normal 0.700215 -0.139281 -0.700215
    outer loop
      vertex -7.5 -12.7654 24.581
      vertex -0.5 -12 31.4288
      vertex -0.5 -12.7654 31.581
    endloop
  endfacet
  facet normal 0.700215 -0.139281 -0.700215
    outer loop
      vertex -0.5 -12 31.4288
      vertex -7.5 -12.7654 24.581
      vertex -7.5 -12 24.4288
    endloop
  endfacet
  facet normal 0.191482 0.962637 -0.191482
    outer loop
      vertex -0.5 -10.1522 32.6634
      vertex -7.5 -10 26.4288
      vertex -0.5 -10 33.4288
    endloop
  endfacet
  facet normal 0.191481 0.962637 -0.191481
    outer loop
      vertex -7.5 -10 26.4288
      vertex -0.5 -10.1522 32.6634
      vertex -7.5 -10.1522 25.6634
    endloop
  endfacet
  facet normal 0.485653 0.72683 -0.485653
    outer loop
      vertex -0.5 -10.5858 32.0146
      vertex -7.5 -10.1522 25.6634
      vertex -0.5 -10.1522 32.6634
    endloop
  endfacet
  facet normal 0.485653 0.72683 -0.485653
    outer loop
      vertex -7.5 -10.1522 25.6634
      vertex -0.5 -10.5858 32.0146
      vertex -7.5 -10.5858 25.0146
    endloop
  endfacet
  facet normal 0 0.980785 0.195091
    outer loop
      vertex -7.5 -10 40.4288
      vertex -42.5 -10.1522 41.1942
      vertex -7.5 -10.1522 41.1942
    endloop
  endfacet
  facet normal 0 0.980785 0.195091
    outer loop
      vertex -42.5 -10.1522 41.1942
      vertex -7.5 -10 40.4288
      vertex -42.5 -10 40.4288
    endloop
  endfacet
  facet normal 0 0.831469 0.55557
    outer loop
      vertex -7.5 -10.1522 41.1942
      vertex -42.5 -10.5858 41.843
      vertex -7.5 -10.5858 41.843
    endloop
  endfacet
  facet normal 0 0.831469 0.55557
    outer loop
      vertex -42.5 -10.5858 41.843
      vertex -7.5 -10.1522 41.1942
      vertex -42.5 -10.1522 41.1942
    endloop
  endfacet
  facet normal -0.191482 -0.962637 -0.191482
    outer loop
      vertex -49.5 -13.8478 32.6634
      vertex -42.5 -14 26.4288
      vertex -49.5 -14 33.4288
    endloop
  endfacet
  facet normal -0.191481 -0.962637 -0.191481
    outer loop
      vertex -42.5 -14 26.4288
      vertex -49.5 -13.8478 32.6634
      vertex -42.5 -13.8478 25.6634
    endloop
  endfacet
  facet normal -0.485653 -0.72683 -0.485653
    outer loop
      vertex -49.5 -13.4142 32.0146
      vertex -42.5 -13.8478 25.6634
      vertex -49.5 -13.8478 32.6634
    endloop
  endfacet
  facet normal -0.485653 -0.72683 -0.485653
    outer loop
      vertex -42.5 -13.8478 25.6634
      vertex -49.5 -13.4142 32.0146
      vertex -42.5 -13.4142 25.0146
    endloop
  endfacet
  facet normal 0.639338 -0.427193 -0.639338
    outer loop
      vertex -7.5 -13.4142 25.0146
      vertex -0.5 -12.7654 31.581
      vertex -0.5 -13.4142 32.0146
    endloop
  endfacet
  facet normal 0.639338 -0.427193 -0.639338
    outer loop
      vertex -0.5 -12.7654 31.581
      vertex -7.5 -13.4142 25.0146
      vertex -7.5 -12.7654 24.581
    endloop
  endfacet
  facet normal 0 0.980785 -0.195091
    outer loop
      vertex 39 -10.1522 31.6634
      vertex 37 -10 32.4288
      vertex 39 -10 32.4288
    endloop
  endfacet
  facet normal 0 0.980785 -0.195091
    outer loop
      vertex 37 -10 32.4288
      vertex 39 -10.1522 31.6634
      vertex 37 -10.1522 31.6634
    endloop
  endfacet
  facet normal -0 0.555569 0.83147
    outer loop
      vertex 37 -10.5858 35.843
      vertex 39 -11.2346 36.2766
      vertex 39 -10.5858 35.843
    endloop
  endfacet
  facet normal 0 0.555569 0.83147
    outer loop
      vertex 39 -11.2346 36.2766
      vertex 37 -10.5858 35.843
      vertex 37 -11.2346 36.2766
    endloop
  endfacet
  facet normal 0 0.831469 -0.55557
    outer loop
      vertex 39 -10.5858 31.0146
      vertex 37 -10.1522 31.6634
      vertex 39 -10.1522 31.6634
    endloop
  endfacet
  facet normal 0 0.831469 -0.55557
    outer loop
      vertex 37 -10.1522 31.6634
      vertex 39 -10.5858 31.0146
      vertex 37 -10.5858 31.0146
    endloop
  endfacet
  facet normal -0.639338 -0.427193 -0.639338
    outer loop
      vertex 37 -13.4142 31.0146
      vertex 36 -12.7654 31.581
      vertex 37 -12.7654 30.581
    endloop
  endfacet
  facet normal -0.639338 -0.427193 -0.639338
    outer loop
      vertex 36 -12.7654 31.581
      vertex 37 -13.4142 31.0146
      vertex 36 -13.4142 32.0146
    endloop
  endfacet
  facet normal 0.639338 -0.427193 -0.639338
    outer loop
      vertex 39 -13.4142 31.0146
      vertex 40 -12.7654 31.581
      vertex 40 -13.4142 32.0146
    endloop
  endfacet
  facet normal 0.639338 -0.427193 -0.639338
    outer loop
      vertex 40 -12.7654 31.581
      vertex 39 -13.4142 31.0146
      vertex 39 -12.7654 30.581
    endloop
  endfacet
  facet normal 0.485653 0.72683 -0.485653
    outer loop
      vertex 40 -10.5858 32.0146
      vertex 39 -10.1522 31.6634
      vertex 40 -10.1522 32.6634
    endloop
  endfacet
  facet normal 0.485653 0.72683 -0.485653
    outer loop
      vertex 39 -10.1522 31.6634
      vertex 40 -10.5858 32.0146
      vertex 39 -10.5858 31.0146
    endloop
  endfacet
  facet normal 0 0.19509 -0.980785
    outer loop
      vertex 37 -12 30.4288
      vertex 39 -11.2346 30.581
      vertex 39 -12 30.4288
    endloop
  endfacet
  facet normal 0 0.19509 -0.980785
    outer loop
      vertex 39 -11.2346 30.581
      vertex 37 -12 30.4288
      vertex 37 -11.2346 30.581
    endloop
  endfacet
  facet normal 0.19148 0.962637 -0.191481
    outer loop
      vertex 40 -10 33.4288
      vertex 39 -10.1522 31.6634
      vertex 39 -10 32.4288
    endloop
  endfacet
  facet normal 0.639338 0.427193 -0.639338
    outer loop
      vertex 40 -11.2346 31.581
      vertex 39 -10.5858 31.0146
      vertex 40 -10.5858 32.0146
    endloop
  endfacet
  facet normal 0.639338 0.427193 -0.639338
    outer loop
      vertex 39 -10.5858 31.0146
      vertex 40 -11.2346 31.581
      vertex 39 -11.2346 30.581
    endloop
  endfacet
  facet normal 0.485653 0.72683 0.485653
    outer loop
      vertex 40 -10.5858 34.843
      vertex 39 -10.1522 35.1942
      vertex 39 -10.5858 35.843
    endloop
  endfacet
  facet normal 0.485653 0.72683 0.485653
    outer loop
      vertex 39 -10.1522 35.1942
      vertex 40 -10.5858 34.843
      vertex 40 -10.1522 34.1942
    endloop
  endfacet
  facet normal 0.639339 0.427191 0.639339
    outer loop
      vertex 40 -11.2346 35.2766
      vertex 39 -10.5858 35.843
      vertex 39 -11.2346 36.2766
    endloop
  endfacet
  facet normal 0.639339 0.427191 0.639339
    outer loop
      vertex 39 -10.5858 35.843
      vertex 40 -11.2346 35.2766
      vertex 40 -10.5858 34.843
    endloop
  endfacet
  facet normal -0.191481 0.962637 0.191481
    outer loop
      vertex 37 -10 34.4288
      vertex 36 -10.1522 34.1942
      vertex 37 -10.1522 35.1942
    endloop
  endfacet
  facet normal -0.191481 0.962637 0.191481
    outer loop
      vertex 36 -10.1522 34.1942
      vertex 37 -10 34.4288
      vertex 36 -10 33.4288
    endloop
  endfacet
  facet normal 0 -0.19509 0.980785
    outer loop
      vertex 37 -12 36.4288
      vertex 39 -12.7654 36.2766
      vertex 39 -12 36.4288
    endloop
  endfacet
  facet normal 0 -0.19509 0.980785
    outer loop
      vertex 39 -12.7654 36.2766
      vertex 37 -12 36.4288
      vertex 37 -12.7654 36.2766
    endloop
  endfacet
  facet normal 0.700215 0.139281 0.700215
    outer loop
      vertex 40 -12 35.4288
      vertex 39 -11.2346 36.2766
      vertex 39 -12 36.4288
    endloop
  endfacet
  facet normal 0.700215 0.139281 0.700215
    outer loop
      vertex 39 -11.2346 36.2766
      vertex 40 -12 35.4288
      vertex 40 -11.2346 35.2766
    endloop
  endfacet
  facet normal 0.700215 -0.139281 -0.700215
    outer loop
      vertex 39 -12.7654 30.581
      vertex 40 -12 31.4288
      vertex 40 -12.7654 31.581
    endloop
  endfacet
  facet normal 0.700215 -0.139281 -0.700215
    outer loop
      vertex 40 -12 31.4288
      vertex 39 -12.7654 30.581
      vertex 39 -12 30.4288
    endloop
  endfacet
  facet normal 0.700215 -0.139281 0.700215
    outer loop
      vertex 39 -12.7654 36.2766
      vertex 40 -12 35.4288
      vertex 39 -12 36.4288
    endloop
  endfacet
  facet normal 0.700215 -0.139281 0.700215
    outer loop
      vertex 40 -12 35.4288
      vertex 39 -12.7654 36.2766
      vertex 40 -12.7654 35.2766
    endloop
  endfacet
  facet normal 0.191482 0.962637 -0.191482
    outer loop
      vertex 40 -10.1522 32.6634
      vertex 39 -10.1522 31.6634
      vertex 40 -10 33.4288
    endloop
  endfacet
  facet normal 0 1 0
    outer loop
      vertex 39 -10 34.4288
      vertex 38 -10 34.1788
      vertex 37 -10 34.4288
    endloop
  endfacet
  facet normal 0 1 0
    outer loop
      vertex 39 -10 34.4288
      vertex 38.6495 -10 33.8038
      vertex 38 -10 34.1788
    endloop
  endfacet
  facet normal 0 1 0
    outer loop
      vertex 40 -10 33.4288
      vertex 38.6495 -10 33.8038
      vertex 39 -10 34.4288
    endloop
  endfacet
  facet normal 0 1 0
    outer loop
      vertex 40 -10 33.4288
      vertex 38.6495 -10 33.0538
      vertex 38.6495 -10 33.8038
    endloop
  endfacet
  facet normal 0 1 -0
    outer loop
      vertex 39 -10 32.4288
      vertex 38.6495 -10 33.0538
      vertex 40 -10 33.4288
    endloop
  endfacet
  facet normal 0 1 0
    outer loop
      vertex 38.6495 -10 33.0538
      vertex 39 -10 32.4288
      vertex 38 -10 32.6788
    endloop
  endfacet
  facet normal 0 1 -0
    outer loop
      vertex 37.3505 -10 33.8038
      vertex 37 -10 34.4288
      vertex 38 -10 34.1788
    endloop
  endfacet
  facet normal 0 1 0
    outer loop
      vertex 37.3505 -10 33.8038
      vertex 36 -10 33.4288
      vertex 37 -10 34.4288
    endloop
  endfacet
  facet normal 0 1 -0
    outer loop
      vertex 37.3505 -10 33.0538
      vertex 36 -10 33.4288
      vertex 37.3505 -10 33.8038
    endloop
  endfacet
  facet normal 0 1 0
    outer loop
      vertex 37 -10 32.4288
      vertex 37.3505 -10 33.0538
      vertex 38 -10 32.6788
    endloop
  endfacet
  facet normal 0 1 0
    outer loop
      vertex 37.3505 -10 33.0538
      vertex 37 -10 32.4288
      vertex 36 -10 33.4288
    endloop
  endfacet
  facet normal 0 1 0
    outer loop
      vertex 37 -10 32.4288
      vertex 38 -10 32.6788
      vertex 39 -10 32.4288
    endloop
  endfacet
  facet normal 0 -0.19509 -0.980785
    outer loop
      vertex 37 -12.7654 30.581
      vertex 39 -12 30.4288
      vertex 39 -12.7654 30.581
    endloop
  endfacet
  facet normal -0 -0.19509 -0.980785
    outer loop
      vertex 39 -12 30.4288
      vertex 37 -12.7654 30.581
      vertex 37 -12 30.4288
    endloop
  endfacet
  facet normal -0.485653 0.72683 -0.485653
    outer loop
      vertex 37 -10.1522 31.6634
      vertex 36 -10.5858 32.0146
      vertex 36 -10.1522 32.6634
    endloop
  endfacet
  facet normal -0.485653 0.72683 -0.485653
    outer loop
      vertex 36 -10.5858 32.0146
      vertex 37 -10.1522 31.6634
      vertex 37 -10.5858 31.0146
    endloop
  endfacet
  facet normal -0.191482 0.962637 -0.191482
    outer loop
      vertex 36 -10 33.4288
      vertex 37 -10.1522 31.6634
      vertex 36 -10.1522 32.6634
    endloop
  endfacet
  facet normal -0.191481 -0.962637 0.191481
    outer loop
      vertex 36 -13.8478 34.1942
      vertex 36 -14 33.4288
      vertex 37 -13.8478 35.1942
    endloop
  endfacet
  facet normal 0 0.980785 0.195091
    outer loop
      vertex 39 -10 34.4288
      vertex 37 -10.1522 35.1942
      vertex 39 -10.1522 35.1942
    endloop
  endfacet
  facet normal 0 0.980785 0.195091
    outer loop
      vertex 37 -10.1522 35.1942
      vertex 39 -10 34.4288
      vertex 37 -10 34.4288
    endloop
  endfacet
  facet normal 0.191481 0.962637 0.191481
    outer loop
      vertex 40 -10.1522 34.1942
      vertex 39 -10 34.4288
      vertex 39 -10.1522 35.1942
    endloop
  endfacet
  facet normal 0.191481 0.962637 0.191481
    outer loop
      vertex 39 -10 34.4288
      vertex 40 -10.1522 34.1942
      vertex 40 -10 33.4288
    endloop
  endfacet
  facet normal -0 0.19509 0.980785
    outer loop
      vertex 37 -11.2346 36.2766
      vertex 39 -12 36.4288
      vertex 39 -11.2346 36.2766
    endloop
  endfacet
  facet normal 0 0.19509 0.980785
    outer loop
      vertex 39 -12 36.4288
      vertex 37 -11.2346 36.2766
      vertex 37 -12 36.4288
    endloop
  endfacet
  facet normal 0.700215 0.139281 -0.700215
    outer loop
      vertex 40 -12 31.4288
      vertex 39 -11.2346 30.581
      vertex 40 -11.2346 31.581
    endloop
  endfacet
  facet normal 0.700215 0.139281 -0.700215
    outer loop
      vertex 39 -11.2346 30.581
      vertex 40 -12 31.4288
      vertex 39 -12 30.4288
    endloop
  endfacet
  facet normal 0 -0.555571 -0.831469
    outer loop
      vertex 37 -13.4142 31.0146
      vertex 39 -12.7654 30.581
      vertex 39 -13.4142 31.0146
    endloop
  endfacet
  facet normal -0 -0.555571 -0.831469
    outer loop
      vertex 39 -12.7654 30.581
      vertex 37 -13.4142 31.0146
      vertex 37 -12.7654 30.581
    endloop
  endfacet
  facet normal 0 0.555571 -0.831469
    outer loop
      vertex 37 -11.2346 30.581
      vertex 39 -10.5858 31.0146
      vertex 39 -11.2346 30.581
    endloop
  endfacet
  facet normal 0 0.555571 -0.831469
    outer loop
      vertex 39 -10.5858 31.0146
      vertex 37 -11.2346 30.581
      vertex 37 -10.5858 31.0146
    endloop
  endfacet
  facet normal -0.19148 0.962637 -0.191481
    outer loop
      vertex 37 -10 32.4288
      vertex 37 -10.1522 31.6634
      vertex 36 -10 33.4288
    endloop
  endfacet
  facet normal -0.485653 -0.72683 -0.485653
    outer loop
      vertex 36 -13.4142 32.0146
      vertex 37 -13.8478 31.6634
      vertex 36 -13.8478 32.6634
    endloop
  endfacet
  facet normal -0.485653 -0.72683 -0.485653
    outer loop
      vertex 37 -13.8478 31.6634
      vertex 36 -13.4142 32.0146
      vertex 37 -13.4142 31.0146
    endloop
  endfacet
  facet normal 0 -0.980785 -0.195092
    outer loop
      vertex 37 -13.8478 31.6634
      vertex 39 -14 32.4288
      vertex 37 -14 32.4288
    endloop
  endfacet
  facet normal 0 -0.980785 -0.195092
    outer loop
      vertex 39 -14 32.4288
      vertex 37 -13.8478 31.6634
      vertex 39 -13.8478 31.6634
    endloop
  endfacet
  facet normal 0.639339 -0.427191 0.639339
    outer loop
      vertex 39 -13.4142 35.843
      vertex 40 -12.7654 35.2766
      vertex 39 -12.7654 36.2766
    endloop
  endfacet
  facet normal 0.639339 -0.427191 0.639339
    outer loop
      vertex 40 -12.7654 35.2766
      vertex 39 -13.4142 35.843
      vertex 40 -13.4142 34.843
    endloop
  endfacet
  facet normal 0 -0.980785 0.195091
    outer loop
      vertex 37 -14 34.4288
      vertex 39 -13.8478 35.1942
      vertex 37 -13.8478 35.1942
    endloop
  endfacet
  facet normal 0 -0.980785 0.195091
    outer loop
      vertex 39 -13.8478 35.1942
      vertex 37 -14 34.4288
      vertex 39 -14 34.4288
    endloop
  endfacet
  facet normal 0 0.831469 0.55557
    outer loop
      vertex 39 -10.1522 35.1942
      vertex 37 -10.5858 35.843
      vertex 39 -10.5858 35.843
    endloop
  endfacet
  facet normal 0 0.831469 0.55557
    outer loop
      vertex 37 -10.5858 35.843
      vertex 39 -10.1522 35.1942
      vertex 37 -10.1522 35.1942
    endloop
  endfacet
  facet normal -0.639339 0.427191 0.639339
    outer loop
      vertex 36 -11.2346 35.2766
      vertex 37 -10.5858 35.843
      vertex 36 -10.5858 34.843
    endloop
  endfacet
  facet normal -0.639339 0.427191 0.639339
    outer loop
      vertex 37 -10.5858 35.843
      vertex 36 -11.2346 35.2766
      vertex 37 -11.2346 36.2766
    endloop
  endfacet
  facet normal -0.485653 0.72683 0.485653
    outer loop
      vertex 37 -10.1522 35.1942
      vertex 36 -10.5858 34.843
      vertex 37 -10.5858 35.843
    endloop
  endfacet
  facet normal -0.485653 0.72683 0.485653
    outer loop
      vertex 36 -10.5858 34.843
      vertex 37 -10.1522 35.1942
      vertex 36 -10.1522 34.1942
    endloop
  endfacet
  facet normal 0 -0.555569 0.83147
    outer loop
      vertex 37 -12.7654 36.2766
      vertex 39 -13.4142 35.843
      vertex 39 -12.7654 36.2766
    endloop
  endfacet
  facet normal 0 -0.555569 0.83147
    outer loop
      vertex 39 -13.4142 35.843
      vertex 37 -12.7654 36.2766
      vertex 37 -13.4142 35.843
    endloop
  endfacet
  facet normal -0.700215 0.139281 0.700215
    outer loop
      vertex 36 -12 35.4288
      vertex 37 -11.2346 36.2766
      vertex 36 -11.2346 35.2766
    endloop
  endfacet
  facet normal -0.700215 0.139281 0.700215
    outer loop
      vertex 37 -11.2346 36.2766
      vertex 36 -12 35.4288
      vertex 37 -12 36.4288
    endloop
  endfacet
  facet normal -0.700215 0.139281 -0.700215
    outer loop
      vertex 36 -12 31.4288
      vertex 37 -11.2346 30.581
      vertex 37 -12 30.4288
    endloop
  endfacet
  facet normal -0.700215 0.139281 -0.700215
    outer loop
      vertex 37 -11.2346 30.581
      vertex 36 -12 31.4288
      vertex 36 -11.2346 31.581
    endloop
  endfacet
  facet normal -0.639338 0.427193 -0.639338
    outer loop
      vertex 36 -11.2346 31.581
      vertex 37 -10.5858 31.0146
      vertex 37 -11.2346 30.581
    endloop
  endfacet
  facet normal -0.639338 0.427193 -0.639338
    outer loop
      vertex 37 -10.5858 31.0146
      vertex 36 -11.2346 31.581
      vertex 36 -10.5858 32.0146
    endloop
  endfacet
  facet normal -0.700215 -0.139281 -0.700215
    outer loop
      vertex 37 -12.7654 30.581
      vertex 36 -12 31.4288
      vertex 37 -12 30.4288
    endloop
  endfacet
  facet normal -0.700215 -0.139281 -0.700215
    outer loop
      vertex 36 -12 31.4288
      vertex 37 -12.7654 30.581
      vertex 36 -12.7654 31.581
    endloop
  endfacet
  facet normal 0 -0.831469 -0.55557
    outer loop
      vertex 37 -13.4142 31.0146
      vertex 39 -13.8478 31.6634
      vertex 37 -13.8478 31.6634
    endloop
  endfacet
  facet normal 0 -0.831469 -0.55557
    outer loop
      vertex 39 -13.8478 31.6634
      vertex 37 -13.4142 31.0146
      vertex 39 -13.4142 31.0146
    endloop
  endfacet
  facet normal 0 -0.831469 0.55557
    outer loop
      vertex 37 -13.8478 35.1942
      vertex 39 -13.4142 35.843
      vertex 37 -13.4142 35.843
    endloop
  endfacet
  facet normal 0 -0.831469 0.55557
    outer loop
      vertex 39 -13.4142 35.843
      vertex 37 -13.8478 35.1942
      vertex 39 -13.8478 35.1942
    endloop
  endfacet
  facet normal 0.191481 -0.962637 0.191481
    outer loop
      vertex 39 -13.8478 35.1942
      vertex 40 -14 33.4288
      vertex 40 -13.8478 34.1942
    endloop
  endfacet
  facet normal -0.191481 -0.962637 0.191481
    outer loop
      vertex 37 -13.8478 35.1942
      vertex 36 -14 33.4288
      vertex 37 -14 34.4288
    endloop
  endfacet
  facet normal -0.485653 -0.72683 0.485653
    outer loop
      vertex 36 -13.4142 34.843
      vertex 37 -13.8478 35.1942
      vertex 37 -13.4142 35.843
    endloop
  endfacet
  facet normal -0.485653 -0.72683 0.485653
    outer loop
      vertex 37 -13.8478 35.1942
      vertex 36 -13.4142 34.843
      vertex 36 -13.8478 34.1942
    endloop
  endfacet
  facet normal -0.639339 -0.427191 0.639339
    outer loop
      vertex 37 -13.4142 35.843
      vertex 36 -12.7654 35.2766
      vertex 36 -13.4142 34.843
    endloop
  endfacet
  facet normal -0.639339 -0.427191 0.639339
    outer loop
      vertex 36 -12.7654 35.2766
      vertex 37 -13.4142 35.843
      vertex 37 -12.7654 36.2766
    endloop
  endfacet
  facet normal -0.700215 -0.139281 0.700215
    outer loop
      vertex 37 -12.7654 36.2766
      vertex 36 -12 35.4288
      vertex 36 -12.7654 35.2766
    endloop
  endfacet
  facet normal -0.700215 -0.139281 0.700215
    outer loop
      vertex 36 -12 35.4288
      vertex 37 -12.7654 36.2766
      vertex 37 -12 36.4288
    endloop
  endfacet
  facet normal 0.485653 -0.72683 -0.485653
    outer loop
      vertex 39 -13.8478 31.6634
      vertex 40 -13.4142 32.0146
      vertex 40 -13.8478 32.6634
    endloop
  endfacet
  facet normal 0.485653 -0.72683 -0.485653
    outer loop
      vertex 40 -13.4142 32.0146
      vertex 39 -13.8478 31.6634
      vertex 39 -13.4142 31.0146
    endloop
  endfacet
  facet normal 0.191481 -0.962637 0.191481
    outer loop
      vertex 39 -14 34.4288
      vertex 40 -14 33.4288
      vertex 39 -13.8478 35.1942
    endloop
  endfacet
  facet normal 0.485653 -0.72683 0.485653
    outer loop
      vertex 39 -13.8478 35.1942
      vertex 40 -13.4142 34.843
      vertex 39 -13.4142 35.843
    endloop
  endfacet
  facet normal 0.485653 -0.72683 0.485653
    outer loop
      vertex 40 -13.4142 34.843
      vertex 39 -13.8478 35.1942
      vertex 40 -13.8478 34.1942
    endloop
  endfacet
  facet normal -0.191482 -0.962637 -0.191482
    outer loop
      vertex 36 -13.8478 32.6634
      vertex 37 -14 32.4288
      vertex 36 -14 33.4288
    endloop
  endfacet
  facet normal -0.191482 -0.962637 -0.191482
    outer loop
      vertex 37 -14 32.4288
      vertex 36 -13.8478 32.6634
      vertex 37 -13.8478 31.6634
    endloop
  endfacet
  facet normal 0.191482 -0.962637 -0.191482
    outer loop
      vertex 39 -14 32.4288
      vertex 40 -13.8478 32.6634
      vertex 40 -14 33.4288
    endloop
  endfacet
  facet normal 0.191482 -0.962637 -0.191482
    outer loop
      vertex 40 -13.8478 32.6634
      vertex 39 -14 32.4288
      vertex 39 -13.8478 31.6634
    endloop
  endfacet
  facet normal 0 -1 0
    outer loop
      vertex 37 -14 34.4288
      vertex 38 -14 34.1788
      vertex 39 -14 34.4288
    endloop
  endfacet
  facet normal 0 -1 0
    outer loop
      vertex 37 -14 34.4288
      vertex 37.3505 -14 33.8038
      vertex 38 -14 34.1788
    endloop
  endfacet
  facet normal 0 -1 0
    outer loop
      vertex 36 -14 33.4288
      vertex 37.3505 -14 33.8038
      vertex 37 -14 34.4288
    endloop
  endfacet
  facet normal 0 -1 0
    outer loop
      vertex 36 -14 33.4288
      vertex 37.3505 -14 33.0538
      vertex 37.3505 -14 33.8038
    endloop
  endfacet
  facet normal 0 -1 0
    outer loop
      vertex 37 -14 32.4288
      vertex 37.3505 -14 33.0538
      vertex 36 -14 33.4288
    endloop
  endfacet
  facet normal 0 -1 -0
    outer loop
      vertex 37.3505 -14 33.0538
      vertex 37 -14 32.4288
      vertex 38 -14 32.6788
    endloop
  endfacet
  facet normal 0 -1 0
    outer loop
      vertex 38.6495 -14 33.8038
      vertex 39 -14 34.4288
      vertex 38 -14 34.1788
    endloop
  endfacet
  facet normal 0 -1 0
    outer loop
      vertex 38.6495 -14 33.8038
      vertex 40 -14 33.4288
      vertex 39 -14 34.4288
    endloop
  endfacet
  facet normal 0 -1 0
    outer loop
      vertex 38.6495 -14 33.0538
      vertex 40 -14 33.4288
      vertex 38.6495 -14 33.8038
    endloop
  endfacet
  facet normal 0 -1 0
    outer loop
      vertex 39 -14 32.4288
      vertex 38.6495 -14 33.0538
      vertex 38 -14 32.6788
    endloop
  endfacet
  facet normal 0 -1 0
    outer loop
      vertex 38.6495 -14 33.0538
      vertex 39 -14 32.4288
      vertex 40 -14 33.4288
    endloop
  endfacet
  facet normal 0 -1 0
    outer loop
      vertex 39 -14 32.4288
      vertex 38 -14 32.6788
      vertex 37 -14 32.4288
    endloop
  endfacet
  facet normal -0 0 1
    outer loop
      vertex -42.5 -10 28.9288
      vertex -7.5 -14 28.9288
      vertex -7.5 -10 28.9288
    endloop
  endfacet
  facet normal 0 0 1
    outer loop
      vertex -7.5 -14 28.9288
      vertex -42.5 -10 28.9288
      vertex -42.5 -14 28.9288
    endloop
  endfacet
  facet normal 0.707107 0 0.707107
    outer loop
      vertex -47 -10 33.4288
      vertex -42.5 -14 28.9288
      vertex -42.5 -10 28.9288
    endloop
  endfacet
  facet normal 0.707107 0 0.707107
    outer loop
      vertex -42.5 -14 28.9288
      vertex -47 -10 33.4288
      vertex -47 -14 33.4288
    endloop
  endfacet
  facet normal 0.707107 0 -0.707107
    outer loop
      vertex -42.5 -14 37.9288
      vertex -47 -10 33.4288
      vertex -42.5 -10 37.9288
    endloop
  endfacet
  facet normal 0.707107 0 -0.707107
    outer loop
      vertex -47 -10 33.4288
      vertex -42.5 -14 37.9288
      vertex -47 -14 33.4288
    endloop
  endfacet
  facet normal -0.707107 0 -0.707107
    outer loop
      vertex -3 -14 33.4288
      vertex -7.5 -10 37.9288
      vertex -3 -10 33.4288
    endloop
  endfacet
  facet normal -0.707107 -0 -0.707107
    outer loop
      vertex -7.5 -10 37.9288
      vertex -3 -14 33.4288
      vertex -7.5 -14 37.9288
    endloop
  endfacet
  facet normal 0 0 -1
    outer loop
      vertex -42.5 -14 37.9288
      vertex -7.5 -10 37.9288
      vertex -7.5 -14 37.9288
    endloop
  endfacet
  facet normal -0 0 -1
    outer loop
      vertex -7.5 -10 37.9288
      vertex -42.5 -14 37.9288
      vertex -42.5 -10 37.9288
    endloop
  endfacet
  facet normal -0.707107 0 0.707107
    outer loop
      vertex -7.5 -10 28.9288
      vertex -3 -14 33.4288
      vertex -3 -10 33.4288
    endloop
  endfacet
  facet normal -0.707107 0 0.707107
    outer loop
      vertex -3 -14 33.4288
      vertex -7.5 -10 28.9288
      vertex -7.5 -14 28.9288
    endloop
  endfacet
  facet normal 0.499999 0 -0.866026
    outer loop
      vertex 37.3505 -14 33.8038
      vertex 38 -10 34.1788
      vertex 38 -14 34.1788
    endloop
  endfacet
  facet normal 0.499999 0 -0.866026
    outer loop
      vertex 38 -10 34.1788
      vertex 37.3505 -14 33.8038
      vertex 37.3505 -10 33.8038
    endloop
  endfacet
  facet normal 1 -0 0
    outer loop
      vertex 37.3505 -14 33.8038
      vertex 37.3505 -10 33.0538
      vertex 37.3505 -10 33.8038
    endloop
  endfacet
  facet normal 1 0 0
    outer loop
      vertex 37.3505 -10 33.0538
      vertex 37.3505 -14 33.8038
      vertex 37.3505 -14 33.0538
    endloop
  endfacet
  facet normal 0.500003 0 0.866024
    outer loop
      vertex 37.3505 -10 33.0538
      vertex 38 -14 32.6788
      vertex 38 -10 32.6788
    endloop
  endfacet
  facet normal 0.500003 0 0.866024
    outer loop
      vertex 38 -14 32.6788
      vertex 37.3505 -10 33.0538
      vertex 37.3505 -14 33.0538
    endloop
  endfacet
  facet normal -0.499999 0 0.866026
    outer loop
      vertex 38 -10 32.6788
      vertex 38.6495 -14 33.0538
      vertex 38.6495 -10 33.0538
    endloop
  endfacet
  facet normal -0.499999 0 0.866026
    outer loop
      vertex 38.6495 -14 33.0538
      vertex 38 -10 32.6788
      vertex 38 -14 32.6788
    endloop
  endfacet
  facet normal -1 0 0
    outer loop
      vertex 38.6495 -14 33.0538
      vertex 38.6495 -10 33.8038
      vertex 38.6495 -10 33.0538
    endloop
  endfacet
  facet normal -1 -0 0
    outer loop
      vertex 38.6495 -10 33.8038
      vertex 38.6495 -14 33.0538
      vertex 38.6495 -14 33.8038
    endloop
  endfacet
  facet normal -0.499999 0 -0.866026
    outer loop
      vertex 38 -14 34.1788
      vertex 38.6495 -10 33.8038
      vertex 38.6495 -14 33.8038
    endloop
  endfacet
  facet normal -0.499999 0 -0.866026
    outer loop
      vertex 38.6495 -10 33.8038
      vertex 38 -14 34.1788
      vertex 38 -10 34.1788
    endloop
  endfacet
endsolid OpenSCAD_Model
